\relax 
\providecommand\zref@newlabel[2]{}
\providecommand\hyper@newdestlabel[2]{}
\abx@aux@sortscheme{nyt}
\providecommand\HyperFirstAtBeginDocument{\AtBeginDocument}
\HyperFirstAtBeginDocument{\ifx\hyper@anchor\@undefined
\global\let\oldcontentsline\contentsline
\gdef\contentsline#1#2#3#4{\oldcontentsline{#1}{#2}{#3}}
\global\let\oldnewlabel\newlabel
\gdef\newlabel#1#2{\newlabelxx{#1}#2}
\gdef\newlabelxx#1#2#3#4#5#6{\oldnewlabel{#1}{{#2}{#3}}}
\AtEndDocument{\ifx\hyper@anchor\@undefined
\let\contentsline\oldcontentsline
\let\newlabel\oldnewlabel
\fi}
\fi}
\global\let\hyper@last\relax 
\gdef\HyperFirstAtBeginDocument#1{#1}
\providecommand\HyField@AuxAddToFields[1]{}
\providecommand\HyField@AuxAddToCoFields[2]{}
\@writefile{toc}{\boolfalse {citerequest}\boolfalse {citetracker}\boolfalse {pagetracker}\boolfalse {backtracker}\relax }
\@writefile{lof}{\boolfalse {citerequest}\boolfalse {citetracker}\boolfalse {pagetracker}\boolfalse {backtracker}\relax }
\@writefile{lot}{\boolfalse {citerequest}\boolfalse {citetracker}\boolfalse {pagetracker}\boolfalse {backtracker}\relax }
\select@language{english}
\@writefile{toc}{\defcounter {refsection}{0}\relax }\@writefile{toc}{\select@language{english}}
\@writefile{lof}{\defcounter {refsection}{0}\relax }\@writefile{lof}{\select@language{english}}
\@writefile{lot}{\defcounter {refsection}{0}\relax }\@writefile{lot}{\select@language{english}}
\pgfsyspdfmark {pgfid2}{0}{55380990}
\pgfsyspdfmark {pgfid1}{5966969}{48902215}
\@writefile{toc}{\defcounter {refsection}{0}\relax }\@writefile{toc}{\contentsline {chapter}{\numberline {1}Introduction}{7}{chapter.1}}
\@writefile{lof}{\defcounter {refsection}{0}\relax }\@writefile{lof}{\addvspace {10\p@ }}
\@writefile{lot}{\defcounter {refsection}{0}\relax }\@writefile{lot}{\addvspace {10\p@ }}
\ttl@writefile{ptc}{\ttl@starttoc{default@1}}
\pgfsyspdfmark {pgfid4}{0}{55380990}
\pgfsyspdfmark {pgfid3}{5966969}{48902215}
\@writefile{toc}{\defcounter {refsection}{0}\relax }\@writefile{toc}{\contentsline {section}{\numberline {1.1}Features for User}{7}{section.1.1}}
\@writefile{toc}{\defcounter {refsection}{0}\relax }\@writefile{toc}{\contentsline {section}{\numberline {1.2}Features for Developer}{7}{section.1.2}}
\@writefile{toc}{\defcounter {refsection}{0}\relax }\@writefile{toc}{\contentsline {section}{\numberline {1.3}Installation}{8}{section.1.3}}
\zref@newlabel{mdf@pagelabel-1}{\default{1.3}\page{8}\abspage{8}\mdf@pagevalue{8}}
\zref@newlabel{mdf@pagelabel-2}{\default{1.3}\page{8}\abspage{8}\mdf@pagevalue{8}}
\@writefile{toc}{\defcounter {refsection}{0}\relax }\@writefile{toc}{\contentsline {chapter}{\numberline {2}Syntactic Analysis}{9}{chapter.2}}
\@writefile{lof}{\defcounter {refsection}{0}\relax }\@writefile{lof}{\addvspace {10\p@ }}
\@writefile{lot}{\defcounter {refsection}{0}\relax }\@writefile{lot}{\addvspace {10\p@ }}
\ttl@writefile{ptc}{\ttl@stoptoc{default@1}}
\ttl@writefile{ptc}{\ttl@starttoc{default@2}}
\pgfsyspdfmark {pgfid6}{0}{55380990}
\pgfsyspdfmark {pgfid5}{5966969}{48902215}
\@writefile{toc}{\defcounter {refsection}{0}\relax }\@writefile{toc}{\contentsline {section}{\numberline {2.1}Lexer and Parser}{9}{section.2.1}}
\@writefile{toc}{\defcounter {refsection}{0}\relax }\@writefile{toc}{\contentsline {section}{\numberline {2.2}Symbols}{9}{section.2.2}}
\@writefile{toc}{\defcounter {refsection}{0}\relax }\@writefile{toc}{\contentsline {subsection}{\numberline {2.2.1}Type}{9}{subsection.2.2.1}}
\@writefile{toc}{\defcounter {refsection}{0}\relax }\@writefile{toc}{\contentsline {subsection}{\numberline {2.2.2}Variable}{10}{subsection.2.2.2}}
\newlabel{subsection:variable}{{2.2.2}{10}{Variable}{subsection.2.2.2}{}}
\@writefile{toc}{\defcounter {refsection}{0}\relax }\@writefile{toc}{\contentsline {subsection}{\numberline {2.2.3}Jump}{10}{subsection.2.2.3}}
\@writefile{toc}{\defcounter {refsection}{0}\relax }\@writefile{toc}{\contentsline {section}{\numberline {2.3}Environment}{10}{section.2.3}}
\@writefile{toc}{\defcounter {refsection}{0}\relax }\@writefile{toc}{\contentsline {subsection}{\numberline {2.3.1}Time Complexity}{10}{subsection.2.3.1}}
\zref@newlabel{mdf@pagelabel-3}{\default{2.3.1}\page{11}\abspage{11}\mdf@pagevalue{11}}
\@writefile{toc}{\defcounter {refsection}{0}\relax }\@writefile{toc}{\contentsline {section}{\numberline {2.4}ANTLR}{11}{section.2.4}}
\@writefile{toc}{\defcounter {refsection}{0}\relax }\@writefile{toc}{\contentsline {chapter}{\numberline {3}Storage}{13}{chapter.3}}
\@writefile{lof}{\defcounter {refsection}{0}\relax }\@writefile{lof}{\addvspace {10\p@ }}
\@writefile{lot}{\defcounter {refsection}{0}\relax }\@writefile{lot}{\addvspace {10\p@ }}
\ttl@writefile{ptc}{\ttl@stoptoc{default@2}}
\ttl@writefile{ptc}{\ttl@starttoc{default@3}}
\pgfsyspdfmark {pgfid8}{0}{55380990}
\pgfsyspdfmark {pgfid7}{5966969}{48902215}
\@writefile{toc}{\defcounter {refsection}{0}\relax }\@writefile{toc}{\contentsline {section}{\numberline {3.1}Alignment}{13}{section.3.1}}
\@writefile{toc}{\defcounter {refsection}{0}\relax }\@writefile{toc}{\contentsline {section}{\numberline {3.2}Static Global Memory}{13}{section.3.2}}
\@writefile{toc}{\defcounter {refsection}{0}\relax }\@writefile{toc}{\contentsline {section}{\numberline {3.3}Function}{13}{section.3.3}}
\@writefile{toc}{\defcounter {refsection}{0}\relax }\@writefile{toc}{\contentsline {subsection}{\numberline {3.3.1}Various Arguments}{13}{subsection.3.3.1}}
\@writefile{toc}{\defcounter {refsection}{0}\relax }\@writefile{toc}{\contentsline {subsection}{\numberline {3.3.2}Stack Frame}{13}{subsection.3.3.2}}
\@writefile{toc}{\defcounter {refsection}{0}\relax }\@writefile{toc}{\contentsline {chapter}{\numberline {4}Intermediate Representation}{15}{chapter.4}}
\@writefile{lof}{\defcounter {refsection}{0}\relax }\@writefile{lof}{\addvspace {10\p@ }}
\@writefile{lot}{\defcounter {refsection}{0}\relax }\@writefile{lot}{\addvspace {10\p@ }}
\ttl@writefile{ptc}{\ttl@stoptoc{default@3}}
\ttl@writefile{ptc}{\ttl@starttoc{default@4}}
\pgfsyspdfmark {pgfid10}{0}{55380990}
\pgfsyspdfmark {pgfid9}{5966969}{48902215}
\@writefile{toc}{\defcounter {refsection}{0}\relax }\@writefile{toc}{\contentsline {section}{\numberline {4.1}Automatic Error Fixing}{15}{section.4.1}}
\zref@newlabel{mdf@pagelabel-4}{\default{4.1.1}\page{15}\abspage{15}\mdf@pagevalue{15}}
\@writefile{toc}{\defcounter {refsection}{0}\relax }\@writefile{toc}{\contentsline {section}{\numberline {4.2}Fork System}{16}{section.4.2}}
\newlabel{section:fork_system}{{4.2}{16}{Fork System}{section.4.2}{}}
\newlabel{example:loop_structure}{{4.2.1}{16}{}{exampleT.4.2.1}{}}
\zref@newlabel{mdf@pagelabel-5}{\default{4.2.1}\page{16}\abspage{16}\mdf@pagevalue{16}}
\zref@newlabel{mdf@pagelabel-6}{\default{4.2.1}\page{16}\abspage{16}\mdf@pagevalue{16}}
\@writefile{toc}{\defcounter {refsection}{0}\relax }\@writefile{toc}{\contentsline {section}{\numberline {4.3}Comment}{16}{section.4.3}}
\zref@newlabel{mdf@pagelabel-7}{\default{4.3.1}\page{16}\abspage{16}\mdf@pagevalue{16}}
\zref@newlabel{mdf@pagelabel-8}{\default{4.3.1}\page{17}\abspage{17}\mdf@pagevalue{17}}
\zref@newlabel{mdf@pagelabel-9}{\default{4.3.1}\page{17}\abspage{17}\mdf@pagevalue{17}}
\@writefile{toc}{\defcounter {refsection}{0}\relax }\@writefile{toc}{\contentsline {chapter}{\numberline {5}Optimization}{19}{chapter.5}}
\@writefile{lof}{\defcounter {refsection}{0}\relax }\@writefile{lof}{\addvspace {10\p@ }}
\@writefile{lot}{\defcounter {refsection}{0}\relax }\@writefile{lot}{\addvspace {10\p@ }}
\ttl@writefile{ptc}{\ttl@stoptoc{default@4}}
\ttl@writefile{ptc}{\ttl@starttoc{default@5}}
\pgfsyspdfmark {pgfid12}{0}{55380990}
\pgfsyspdfmark {pgfid11}{5966969}{48902215}
\newlabel{example:optimization}{{5.0.2}{19}{}{exampleT.5.0.2}{}}
\zref@newlabel{mdf@pagelabel-10}{\default{5.0.2}\page{19}\abspage{19}\mdf@pagevalue{19}}
\zref@newlabel{mdf@pagelabel-11}{\default{5.0.2}\page{19}\abspage{19}\mdf@pagevalue{19}}
\@writefile{toc}{\defcounter {refsection}{0}\relax }\@writefile{toc}{\contentsline {section}{\numberline {5.1}Function Inline}{19}{section.5.1}}
\@writefile{toc}{\defcounter {refsection}{0}\relax }\@writefile{toc}{\contentsline {section}{\numberline {5.2}Constant Propagation}{20}{section.5.2}}
\zref@newlabel{mdf@pagelabel-12}{\default{5.2.1}\page{20}\abspage{20}\mdf@pagevalue{20}}
\zref@newlabel{mdf@pagelabel-13}{\default{5.2.1}\page{20}\abspage{20}\mdf@pagevalue{20}}
\@writefile{toc}{\defcounter {refsection}{0}\relax }\@writefile{toc}{\contentsline {section}{\numberline {5.3}Control Flow Analysis}{20}{section.5.3}}
\zref@newlabel{mdf@pagelabel-14}{\default{5.3}\page{20}\abspage{20}\mdf@pagevalue{20}}
\zref@newlabel{mdf@pagelabel-15}{\default{5.3}\page{20}\abspage{20}\mdf@pagevalue{20}}
\zref@newlabel{mdf@pagelabel-16}{\default{5.3}\page{20}\abspage{20}\mdf@pagevalue{20}}
\newlabel{theorem:block_DAG}{{5.3.2}{20}{}{dummy.5.3.2}{}}
\@writefile{toc}{\defcounter {refsection}{0}\relax }\@writefile{toc}{\contentsline {section}{\numberline {5.4}Unreachable Code Elimination}{20}{section.5.4}}
\@writefile{toc}{\defcounter {refsection}{0}\relax }\@writefile{toc}{\contentsline {section}{\numberline {5.5}Liveness Analysis}{21}{section.5.5}}
\@writefile{toc}{\defcounter {refsection}{0}\relax }\@writefile{toc}{\contentsline {section}{\numberline {5.6}Useless Move Instruction Elimination}{21}{section.5.6}}
\@writefile{toc}{\defcounter {refsection}{0}\relax }\@writefile{toc}{\contentsline {section}{\numberline {5.7}Dead Code Elimination}{21}{section.5.7}}
\@writefile{toc}{\defcounter {refsection}{0}\relax }\@writefile{toc}{\contentsline {section}{\numberline {5.8}Strength Reduction}{22}{section.5.8}}
\@writefile{toc}{\defcounter {refsection}{0}\relax }\@writefile{toc}{\contentsline {section}{\numberline {5.9}Common Temporary Variable}{22}{section.5.9}}
\zref@newlabel{mdf@pagelabel-17}{\default{5.9.1}\page{22}\abspage{22}\mdf@pagevalue{22}}
\@writefile{toc}{\defcounter {refsection}{0}\relax }\@writefile{toc}{\contentsline {section}{\numberline {5.10}Structure of Loop}{22}{section.5.10}}
\@writefile{toc}{\defcounter {refsection}{0}\relax }\@writefile{toc}{\contentsline {chapter}{\numberline {6}Register Allocation}{23}{chapter.6}}
\@writefile{lof}{\defcounter {refsection}{0}\relax }\@writefile{lof}{\addvspace {10\p@ }}
\@writefile{lot}{\defcounter {refsection}{0}\relax }\@writefile{lot}{\addvspace {10\p@ }}
\ttl@writefile{ptc}{\ttl@stoptoc{default@5}}
\ttl@writefile{ptc}{\ttl@starttoc{default@6}}
\pgfsyspdfmark {pgfid14}{0}{55380990}
\pgfsyspdfmark {pgfid13}{5966969}{48902215}
\@writefile{toc}{\defcounter {refsection}{0}\relax }\@writefile{toc}{\contentsline {section}{\numberline {6.1}Graph Coloring}{23}{section.6.1}}
\@writefile{toc}{\defcounter {refsection}{0}\relax }\@writefile{toc}{\contentsline {section}{\numberline {6.2}Interval graph}{23}{section.6.2}}
\@writefile{toc}{\defcounter {refsection}{0}\relax }\@writefile{toc}{\contentsline {section}{\numberline {6.3}Alias}{23}{section.6.3}}
\@writefile{toc}{\defcounter {refsection}{0}\relax }\@writefile{toc}{\contentsline {section}{\numberline {6.4}Network Flow}{23}{section.6.4}}
\@writefile{toc}{\defcounter {refsection}{0}\relax }\@writefile{toc}{\contentsline {section}{\numberline {6.5}Regenerate Intermediate Code}{24}{section.6.5}}
\@writefile{toc}{\defcounter {refsection}{0}\relax }\@writefile{toc}{\contentsline {chapter}{\numberline {7}Linking}{25}{chapter.7}}
\@writefile{lof}{\defcounter {refsection}{0}\relax }\@writefile{lof}{\addvspace {10\p@ }}
\@writefile{lot}{\defcounter {refsection}{0}\relax }\@writefile{lot}{\addvspace {10\p@ }}
\ttl@writefile{ptc}{\ttl@stoptoc{default@6}}
\ttl@writefile{ptc}{\ttl@starttoc{default@7}}
\pgfsyspdfmark {pgfid16}{0}{55380990}
\pgfsyspdfmark {pgfid15}{5966969}{48902215}
\@writefile{toc}{\defcounter {refsection}{0}\relax }\@writefile{toc}{\contentsline {section}{\numberline {7.1}Useless Label Elimination}{25}{section.7.1}}
\@writefile{toc}{\defcounter {refsection}{0}\relax }\@writefile{toc}{\contentsline {section}{\numberline {7.2}Program Entrance}{25}{section.7.2}}
\@writefile{toc}{\defcounter {refsection}{0}\relax }\@writefile{toc}{\contentsline {chapter}{\numberline {8}Translation}{27}{chapter.8}}
\@writefile{lof}{\defcounter {refsection}{0}\relax }\@writefile{lof}{\addvspace {10\p@ }}
\@writefile{lot}{\defcounter {refsection}{0}\relax }\@writefile{lot}{\addvspace {10\p@ }}
\ttl@writefile{ptc}{\ttl@stoptoc{default@7}}
\ttl@writefile{ptc}{\ttl@starttoc{default@8}}
\pgfsyspdfmark {pgfid18}{0}{55380990}
\pgfsyspdfmark {pgfid17}{5966969}{48902215}
\@writefile{toc}{\defcounter {refsection}{0}\relax }\@writefile{toc}{\contentsline {section}{\numberline {8.1}Addressing}{27}{section.8.1}}
\newlabel{section:addressing}{{8.1}{27}{Addressing}{section.8.1}{}}
\@writefile{toc}{\defcounter {refsection}{0}\relax }\@writefile{toc}{\contentsline {section}{\numberline {8.2}Static Data}{27}{section.8.2}}
\@writefile{toc}{\defcounter {refsection}{0}\relax }\@writefile{toc}{\contentsline {section}{\numberline {8.3}Comment}{27}{section.8.3}}
\newlabel{example:asm}{{8.3.1}{27}{}{exampleT.8.3.1}{}}
\zref@newlabel{mdf@pagelabel-18}{\default{8.3.1}\page{27}\abspage{27}\mdf@pagevalue{27}}
\zref@newlabel{mdf@pagelabel-19}{\default{8.3.1}\page{28}\abspage{28}\mdf@pagevalue{28}}
\@writefile{toc}{\defcounter {refsection}{0}\relax }\@writefile{toc}{\contentsline {section}{\numberline {8.4}Peephole Optimization}{28}{section.8.4}}
\@writefile{toc}{\defcounter {refsection}{0}\relax }\@writefile{toc}{\contentsline {chapter}{\numberline {9}Standard Library}{29}{chapter.9}}
\@writefile{lof}{\defcounter {refsection}{0}\relax }\@writefile{lof}{\addvspace {10\p@ }}
\@writefile{lot}{\defcounter {refsection}{0}\relax }\@writefile{lot}{\addvspace {10\p@ }}
\ttl@writefile{ptc}{\ttl@stoptoc{default@8}}
\ttl@writefile{ptc}{\ttl@starttoc{default@9}}
\pgfsyspdfmark {pgfid20}{0}{55380990}
\pgfsyspdfmark {pgfid19}{5966969}{48902215}
\@writefile{toc}{\defcounter {refsection}{0}\relax }\@writefile{toc}{\contentsline {section}{\numberline {9.1}Basic Functions}{29}{section.9.1}}
\zref@newlabel{mdf@pagelabel-20}{\default{9.1}\page{29}\abspage{29}\mdf@pagevalue{29}}
\zref@newlabel{mdf@pagelabel-21}{\default{9.1}\page{30}\abspage{30}\mdf@pagevalue{30}}
\@writefile{toc}{\defcounter {refsection}{0}\relax }\@writefile{toc}{\contentsline {section}{\numberline {9.2}I/O Optimization}{30}{section.9.2}}
\@writefile{toc}{\defcounter {refsection}{0}\relax }\@writefile{toc}{\contentsline {subsection}{\numberline {9.2.1}Intermediate Representation Version}{30}{subsection.9.2.1}}
\@writefile{toc}{\defcounter {refsection}{0}\relax }\@writefile{toc}{\contentsline {subsection}{\numberline {9.2.2}Reduce I/O Call}{30}{subsection.9.2.2}}
\@writefile{toc}{\defcounter {refsection}{0}\relax }\@writefile{toc}{\contentsline {chapter}{\numberline {10}Performance}{31}{chapter.10}}
\@writefile{lof}{\defcounter {refsection}{0}\relax }\@writefile{lof}{\addvspace {10\p@ }}
\@writefile{lot}{\defcounter {refsection}{0}\relax }\@writefile{lot}{\addvspace {10\p@ }}
\ttl@writefile{ptc}{\ttl@stoptoc{default@9}}
\ttl@writefile{ptc}{\ttl@starttoc{default@10}}
\pgfsyspdfmark {pgfid22}{0}{55380990}
\pgfsyspdfmark {pgfid21}{5966969}{48902215}
\@writefile{toc}{\defcounter {refsection}{0}\relax }\@writefile{toc}{\contentsline {section}{\numberline {10.1}Testing Method}{31}{section.10.1}}
\@writefile{toc}{\defcounter {refsection}{0}\relax }\@writefile{toc}{\contentsline {section}{\numberline {10.2}Result}{31}{section.10.2}}
\@writefile{lof}{\defcounter {refsection}{0}\relax }\@writefile{lof}{\contentsline {figure}{\numberline {10.1}{\ignorespaces Testing result. Start without any optimization and enable register allocation, constant propagation, useless move elimination, dead code elimination, and function inline.}}{31}{figure.10.1}}
\newlabel{figure:performance}{{10.1}{31}{Testing result. Start without any optimization and enable register allocation, constant propagation, useless move elimination, dead code elimination, and function inline}{figure.10.1}{}}
\@writefile{toc}{\defcounter {refsection}{0}\relax }\@writefile{toc}{\contentsline {chapter}{\numberline {11}Compile Error}{33}{chapter.11}}
\@writefile{lof}{\defcounter {refsection}{0}\relax }\@writefile{lof}{\addvspace {10\p@ }}
\@writefile{lot}{\defcounter {refsection}{0}\relax }\@writefile{lot}{\addvspace {10\p@ }}
\ttl@writefile{ptc}{\ttl@stoptoc{default@10}}
\ttl@writefile{ptc}{\ttl@starttoc{default@11}}
\pgfsyspdfmark {pgfid24}{0}{55380990}
\pgfsyspdfmark {pgfid23}{5966969}{48902215}
\@writefile{toc}{\defcounter {refsection}{0}\relax }\@writefile{toc}{\contentsline {section}{\numberline {11.1}Useful Information}{33}{section.11.1}}
\zref@newlabel{mdf@pagelabel-22}{\default{11.1.1}\page{33}\abspage{33}\mdf@pagevalue{33}}
\@writefile{toc}{\defcounter {refsection}{0}\relax }\@writefile{toc}{\contentsline {section}{\numberline {11.2}Recovery}{34}{section.11.2}}
\@writefile{toc}{\defcounter {refsection}{0}\relax }\@writefile{toc}{\contentsline {chapter}{\numberline {12}Developing and Debuging}{35}{chapter.12}}
\@writefile{lof}{\defcounter {refsection}{0}\relax }\@writefile{lof}{\addvspace {10\p@ }}
\@writefile{lot}{\defcounter {refsection}{0}\relax }\@writefile{lot}{\addvspace {10\p@ }}
\ttl@writefile{ptc}{\ttl@stoptoc{default@11}}
\ttl@writefile{ptc}{\ttl@starttoc{default@12}}
\pgfsyspdfmark {pgfid26}{0}{55380990}
\pgfsyspdfmark {pgfid25}{5966969}{48902215}
\@writefile{toc}{\defcounter {refsection}{0}\relax }\@writefile{toc}{\contentsline {section}{\numberline {12.1}Control Panel}{35}{section.12.1}}
\@writefile{toc}{\defcounter {refsection}{0}\relax }\@writefile{toc}{\contentsline {section}{\numberline {12.2}Debug Mode}{35}{section.12.2}}
\@writefile{toc}{\defcounter {refsection}{0}\relax }\@writefile{toc}{\contentsline {chapter}{\numberline {13}Command Line}{37}{chapter.13}}
\@writefile{lof}{\defcounter {refsection}{0}\relax }\@writefile{lof}{\addvspace {10\p@ }}
\@writefile{lot}{\defcounter {refsection}{0}\relax }\@writefile{lot}{\addvspace {10\p@ }}
\ttl@writefile{ptc}{\ttl@stoptoc{default@12}}
\ttl@writefile{ptc}{\ttl@starttoc{default@13}}
\pgfsyspdfmark {pgfid28}{0}{55380990}
\pgfsyspdfmark {pgfid27}{5966969}{48902215}
\@writefile{toc}{\defcounter {refsection}{0}\relax }\@writefile{toc}{\contentsline {section}{\numberline {13.1}Options}{37}{section.13.1}}
\zref@newlabel{mdf@pagelabel-23}{\default{13.1}\page{37}\abspage{37}\mdf@pagevalue{37}}
\zref@newlabel{mdf@pagelabel-24}{\default{13.1}\page{37}\abspage{37}\mdf@pagevalue{37}}
\zref@newlabel{mdf@pagelabel-25}{\default{13.1.1}\page{37}\abspage{37}\mdf@pagevalue{37}}
\zref@newlabel{mdf@pagelabel-26}{\default{13.1.1}\page{38}\abspage{38}\mdf@pagevalue{38}}
\zref@newlabel{mdf@pagelabel-27}{\default{13.1.1}\page{38}\abspage{38}\mdf@pagevalue{38}}
\zref@newlabel{mdf@pagelabel-28}{\default{13.1.1}\page{38}\abspage{38}\mdf@pagevalue{38}}
\zref@newlabel{mdf@pagelabel-29}{\default{13.1.1}\page{39}\abspage{39}\mdf@pagevalue{39}}
\pgfsyspdfmark {pgfid30}{0}{55380990}
\pgfsyspdfmark {pgfid29}{5966969}{49623111}
\@writefile{toc}{\defcounter {refsection}{0}\relax }\@writefile{toc}{\contentsline {chapter}{\leavevmode {\color  {ocre}Index}}{41}{section*.2}}
\ttl@finishall
